Code/PWM/PWM.sim/sim_1/behav/xsim/waves.vcd
$date
   Sun Dec 14 19:34:53 2025
$end
$version
  2022.1
$end
$timescale
  1ps
$end
$scope module tb_top_system $end
$var reg 1 ! clk $end
$var reg 1 " rst_n $end
$var reg 1 # tb_mosi $end
$var wire 1 $ tb_miso $end
$var reg 1 % sclk $end
$var reg 1 & cs_n $end
$var wire 1 ' pwm_out $end
$var reg 8 ( counter_lsb [7:0] $end
$scope module dut $end
$var wire 1 ) clk $end
$var wire 1 * rst_n $end
$var wire 1 + sclk $end
$var wire 1 , cs_n $end
$var wire 1 - miso $end
$var wire 1 $ mosi $end
$var wire 1 ' pwm_out $end
$var wire 1 . byte_sync $end
$var wire 8 / data_in [7:0] $end
$var wire 8 0 data_out [7:0] $end
$var wire 1 1 read $end
$var wire 1 2 write $end
$var wire 6 3 addr [5:0] $end
$var wire 8 4 data_read [7:0] $end
$var wire 8 5 data_write [7:0] $end
$var wire 16 6 counter_val [15:0] $end
$var wire 16 7 period [15:0] $end
$var wire 1 8 en $end
$var wire 1 9 count_reset $end
$var wire 1 : upnotdown $end
$var wire 8 ; prescale [7:0] $end
$var wire 1 < pwm_en $end
$var wire 8 = functions [7:0] $end
$var wire 16 > compare1 [15:0] $end
$var wire 16 ? compare2 [15:0] $end
$scope module i_spi_bridge $end
$var wire 1 ) clk $end
$var wire 1 * rst_n $end
$var wire 1 + sclk $end
$var wire 1 , cs_n $end
$var wire 1 - mosi $end
$var wire 1 $ miso $end
$var wire 1 . byte_sync $end
$var wire 8 / data_in [7:0] $end
$var wire 8 0 data_out [7:0] $end
$var reg 3 @ bit_cnt [2:0] $end
$var reg 8 A shift_in [7:0] $end
$var reg 8 B shift_out [7:0] $end
$var reg 1 C byte_done_toggle $end
$var reg 8 D shift_buffer [7:0] $end
$var reg 1 E sync_1 $end
$var reg 1 F sync_2 $end
$var reg 1 G sync_3 $end
$var reg 1 H byte_sync_pulse $end
$var reg 8 I data_in_latched [7:0] $end
$upscope $end
$scope module i_instr_dcd $end
$var wire 1 ) clk $end
$var wire 1 * rst_n $end
$var wire 1 J byte_sync $end
$var wire 8 / data_in [7:0] $end
$var wire 8 0 data_out [7:0] $end
$var reg 1 K read $end
$var reg 1 L write $end
$var reg 6 M addr [5:0] $end
$var wire 8 4 data_read [7:0] $end
$var reg 8 N data_write [7:0] $end
$var reg 1 O state_reg $end
$var reg 8 P instr_reg [7:0] $end
$var reg 8 Q data_out_reg [7:0] $end
$upscope $end
$scope module i_regs $end
$var wire 1 ) clk $end
$var wire 1 * rst_n $end
$var wire 1 1 read $end
$var wire 1 2 write $end
$var wire 6 3 addr [5:0] $end
$var wire 8 4 data_read [7:0] $end
$var wire 8 5 data_write [7:0] $end
$var wire 16 6 counter_val [15:0] $end
$var reg 16 R period [15:0] $end
$var reg 1 S en $end
$var reg 1 T count_reset $end
$var reg 1 U upnotdown $end
$var reg 8 V prescale [7:0] $end
$var reg 1 W pwm_en $end
$var reg 8 X functions [7:0] $end
$var reg 16 Y compare1 [15:0] $end
$var reg 16 Z compare2 [15:0] $end
$var reg 8 [ data_read_reg [7:0] $end
$upscope $end
$scope module i_counter $end
$var wire 1 ) clk $end
$var wire 1 * rst_n $end
$var wire 16 6 count_val [15:0] $end
$var wire 16 7 period [15:0] $end
$var wire 1 8 en $end
$var wire 1 9 count_reset $end
$var wire 1 : upnotdown $end
$var wire 8 ; prescale [7:0] $end
$var reg 16 \ count_val_reg [15:0] $end
$var reg 8 ] prescale_cnt_reg [7:0] $end
$var wire 1 ^ prescale_tick $end
$upscope $end
$scope module i_pwm_gen $end
$var wire 1 ) clk $end
$var wire 1 * rst_n $end
$var wire 1 < pwm_en $end
$var wire 16 7 period [15:0] $end
$var wire 8 = functions [7:0] $end
$var wire 16 > compare1 [15:0] $end
$var wire 16 ? compare2 [15:0] $end
$var wire 16 6 count_val [15:0] $end
$var wire 1 ' pwm_out $end
$var reg 1 _ pwm_out_reg $end
$var reg 1 ` pwm_out_next $end
$var wire 1 a mode_nealiniat $end
$var wire 1 b mode_dreapta $end
$upscope $end
$upscope $end
$scope task apply_reset $end
$upscope $end
$scope task spi_transfer_byte $end
$var reg 8 c tx [7:0] $end
$var reg 8 d rx [7:0] $end
$var integer 32 e i [31:0] $end
$upscope $end
$scope task spi_write_reg $end
$var reg 6 f addr [5:0] $end
$var reg 8 g data [7:0] $end
$var reg 8 h cmd [7:0] $end
$var reg 8 i dummy [7:0] $end
$upscope $end
$scope task spi_read_reg $end
$var reg 6 j addr [5:0] $end
$var reg 8 k data [7:0] $end
$var reg 8 l cmd [7:0] $end
$var reg 8 m rx [7:0] $end
$upscope $end
$scope task check_pwm_duty $end
$var integer 32 n period_val [31:0] $end
$var integer 32 o high_per_period [31:0] $end
$var integer 32 p num_periods [31:0] $end
$var integer 32 q total_ticks [31:0] $end
$var integer 32 r high_count [31:0] $end
$var integer 32 s i [31:0] $end
$var integer 32 t exp [31:0] $end
$upscope $end
$upscope $end
$enddefinitions $end
#0
$dumpvars
0!
0"
0#
z$
0%
1&
0'
bx (
0)
0*
0+
1,
0-
0.
b0 /
b0 0
01
02
b0 3
b0 4
b0 5
b0 6
b0 7
08
09
0:
b0 ;
0<
b0 =
b0 >
b0 ?
b0 @
b0 A
b0 B
0C
b0 D
0E
0F
0G
0H
b0 I
zJ
0K
0L
b0 M
b0 N
0O
b0 P
b0 Q
b0 R
0S
0T
0U
b0 V
0W
b0 X
b0 Y
b0 Z
b0 [
b0 \
b0 ]
0^
0_
0`
0a
0b
bx c
bx d
bx e
bx f
bx g
bx h
bx i
bx j
bx k
bx l
bx m
bx n
bx o
bx p
bx q
bx r
bx s
bx t
$end
#50000
1!
1)
#100000
0!
0)
#150000
1!
1)
#200000
0!
0)
#250000
1!
1)
#300000
0!
0)
#350000
1!
1)
#400000
0!
0)
#450000
1!
1)
#500000
0!
1"
0)
1*
#550000
1!
1)
#600000
0!
0)
#650000
1!
1)
#700000
0!
0)
#750000
1!
1)
b0 f
b111 g
b11000000 h
#800000
0!
1#
0$
0&
0)
0,
1-
b11000000 c
b0 d
b111 e
#850000
1!
1%
1)
1+
b1 @
b1 A
#900000
0!
0%
0)
0+
b110 e
#950000
1!
1%
1)
1+
b10 @
b11 A
#1000000
0!
0#
0%
0)
0+
0-
b101 e
#1050000
1!
1%
1)
1+
b11 @
b110 A
#1100000
0!
0%
0)
0+
b100 e
#1150000
1!
1%
1)
1+
b100 @
b1100 A
#1200000
0!
0%
0)
0+
b11 e
#1250000
1!
1%
1)
1+
b101 @
b11000 A
#1300000
0!
0%
0)
0+
b10 e
#1350000
1!
1%
1)
1+
b110 @
b110000 A
#1400000
0!
0%
0)
0+
b1 e
#1450000
1!
1%
1)
1+
b111 @
b1100000 A
#1500000
0!
0%
0)
0+
b0 e
#1550000
1!
1%
1)
1+
b0 @
b11000000 A
1C
b11000000 D
#1600000
0!
0%
0)
0+
b111 c
b111 e
b0 i
#1650000
1!
1%
1)
1+
b1 @
b10000000 A
1E
#1700000
0!
0%
0)
0+
b110 e
#1750000
1!
1%
1)
1+
b10 @
b0 A
1F
#1800000
0!
0%
0)
0+
b101 e
#1850000
1!
1%
1)
1+
1.
b11000000 /
b11 @
1G
1H
b11000000 I
#1900000
0!
0%
0)
0+
b100 e
#1950000
1!
1%
1)
1+
0.
b100 @
0H
#2000000
0!
0%
0)
0+
b11 e
#2050000
1!
1%
1)
1+
b101 @
#2100000
0!
1#
0%
0)
0+
1-
b10 e
#2150000
1!
1%
1)
1+
b110 @
b1 A
#2200000
0!
0%
0)
0+
b1 e
#2250000
1!
1%
1)
1+
b111 @
b11 A
#2300000
0!
0%
0)
0+
b0 e
#2350000
1!
1%
1)
1+
b0 @
b111 A
0C
b111 D
#2400000
0!
0%
0)
0+
b11111111111111111111111111111111 e
#2450000
1!
z$
1&
1)
1,
0E
#2500000
0!
0)
#2550000
1!
1)
0F
#2600000
0!
0)
#2650000
1!
1)
1.
b111 /
0G
1H
b111 I
b1010 f
b0 g
b11001010 h
#2700000
0!
0$
0&
0)
0,
b11001010 c
b111 e
#2750000
1!
1%
1)
1+
0.
b1 @
b1111 A
0H
#2800000
0!
0%
0)
0+
b110 e
#2850000
1!
1%
1)
1+
b10 @
b11111 A
#2900000
0!
0#
0%
0)
0+
0-
b101 e
#2950000
1!
1%
1)
1+
b11 @
b111110 A
#3000000
0!
0%
0)
0+
b100 e
#3050000
1!
1%
1)
1+
b100 @
b1111100 A
#3100000
0!
1#
0%
0)
0+
1-
b11 e
#3150000
1!
1%
1)
1+
b101 @
b11111001 A
#3200000
0!
0#
0%
0)
0+
0-
b10 e
#3250000
1!
1%
1)
1+
b110 @
b11110010 A
#3300000
0!
1#
0%
0)
0+
1-
b1 e
#3350000
1!
1%
1)
1+
b111 @
b11100101 A
#3400000
0!
0#
0%
0)
0+
0-
b0 e
#3450000
1!
1%
1)
1+
b0 @
b11001010 A
1C
b11001010 D
#3500000
0!
0%
0)
0+
b0 c
b111 e
#3550000
1!
1%
1)
1+
b1 @
b10010100 A
1E
#3600000
0!
0%
0)
0+
b110 e
#3650000
1!
1%
1)
1+
b10 @
b101000 A
1F
#3700000
0!
0%
0)
0+
b101 e
#3750000
1!
1%
1)
1+
1.
b11001010 /
b11 @
b1010000 A
1G
1H
b11001010 I
#3800000
0!
0%
0)
0+
b100 e
#3850000
1!
1%
1)
1+
0.
b100 @
b10100000 A
0H
#3900000
0!
0%
0)
0+
b11 e
#3950000
1!
1%
1)
1+
b101 @
b1000000 A
#4000000
0!
0%
0)
0+
b10 e
#4050000
1!
1%
1)
1+
b110 @
b10000000 A
#4100000
0!
0%
0)
0+
b1 e
#4150000
1!
1%
1)
1+
b111 @
b0 A
#4200000
0!
0%
0)
0+
b0 e
#4250000
1!
1%
1)
1+
b0 @
0C
b0 D
#4300000
0!
0%
0)
0+
b11111111111111111111111111111111 e
#4350000
1!
z$
1&
1)
1,
0E
#4400000
0!
0)
#4450000
1!
1)
0F
#4500000
0!
0)
#4550000
1!
1)
1.
b0 /
0G
1H
b0 I
b11 f
b11 g
b11000011 h
#4600000
0!
1#
0$
0&
0)
0,
1-
b11000011 c
b111 e
#4650000
1!
1%
1)
1+
0.
b1 @
b1 A
0H
#4700000
0!
0%
0)
0+
b110 e
#4750000
1!
1%
1)
1+
b10 @
b11 A
#4800000
0!
0#
0%
0)
0+
0-
b101 e
#4850000
1!
1%
1)
1+
b11 @
b110 A
#4900000
0!
0%
0)
0+
b100 e
#4950000
1!
1%
1)
1+
b100 @
b1100 A
#5000000
0!
0%
0)
0+
b11 e
#5050000
1!
1%
1)
1+
b101 @
b11000 A
#5100000
0!
0%
0)
0+
b10 e
#5150000
1!
1%
1)
1+
b110 @
b110000 A
#5200000
0!
1#
0%
0)
0+
1-
b1 e
#5250000
1!
1%
1)
1+
b111 @
b1100001 A
#5300000
0!
0%
0)
0+
b0 e
#5350000
1!
1%
1)
1+
b0 @
b11000011 A
1C
b11000011 D
#5400000
0!
0#
0%
0)
0+
0-
b11 c
b111 e
#5450000
1!
1%
1)
1+
b1 @
b10000110 A
1E
#5500000
0!
0%
0)
0+
b110 e
#5550000
1!
1%
1)
1+
b10 @
b1100 A
1F
#5600000
0!
0%
0)
0+
b101 e
#5650000
1!
1%
1)
1+
1.
b11000011 /
b11 @
b11000 A
1G
1H
b11000011 I
#5700000
0!
0%
0)
0+
b100 e
#5750000
1!
1%
1)
1+
0.
b100 @
b110000 A
0H
#5800000
0!
0%
0)
0+
b11 e
#5850000
1!
1%
1)
1+
b101 @
b1100000 A
#5900000
0!
0%
0)
0+
b10 e
#5950000
1!
1%
1)
1+
b110 @
b11000000 A
#6000000
0!
1#
0%
0)
0+
1-
b1 e
#6050000
1!
1%
1)
1+
b111 @
b10000001 A
#6100000
0!
0%
0)
0+
b0 e
#6150000
1!
1%
1)
1+
b0 @
b11 A
0C
b11 D
#6200000
0!
0%
0)
0+
b11111111111111111111111111111111 e
#6250000
1!
z$
1&
1)
1,
0E
#6300000
0!
0)
#6350000
1!
1)
0F
#6400000
0!
0)
#6450000
1!
1)
1.
b11 /
0G
1H
b11 I
b10 f
b1 g
b11000010 h
#6500000
0!
0$
0&
0)
0,
b11000010 c
b111 e
#6550000
1!
1%
1)
1+
0.
b1 @
b111 A
0H
#6600000
0!
0%
0)
0+
b110 e
#6650000
1!
1%
1)
1+
b10 @
b1111 A
#6700000
0!
0#
0%
0)
0+
0-
b101 e
#6750000
1!
1%
1)
1+
b11 @
b11110 A
#6800000
0!
0%
0)
0+
b100 e
#6850000
1!
1%
1)
1+
b100 @
b111100 A
#6900000
0!
0%
0)
0+
b11 e
#6950000
1!
1%
1)
1+
b101 @
b1111000 A
#7000000
0!
0%
0)
0+
b10 e
#7050000
1!
1%
1)
1+
b110 @
b11110000 A
#7100000
0!
1#
0%
0)
0+
1-
b1 e
#7150000
1!
1%
1)
1+
b111 @
b11100001 A
#7200000
0!
0#
0%
0)
0+
0-
b0 e
#7250000
1!
1%
1)
1+
b0 @
b11000010 A
1C
b11000010 D
#7300000
0!
0%
0)
0+
b1 c
b111 e
#7350000
1!
1%
1)
1+
b1 @
b10000100 A
1E
#7400000
0!
0%
0)
0+
b110 e
#7450000
1!
1%
1)
1+
b10 @
b1000 A
1F
#7500000
0!
0%
0)
0+
b101 e
#7550000
1!
1%
1)
1+
1.
b11000010 /
b11 @
b10000 A
1G
1H
b11000010 I
#7600000
0!
0%
0)
0+
b100 e
#7650000
1!
1%
1)
1+
0.
b100 @
b100000 A
0H
#7700000
0!
0%
0)
0+
b11 e
#7750000
1!
1%
1)
1+
b101 @
b1000000 A
#7800000
0!
0%
0)
0+
b10 e
#7850000
1!
1%
1)
1+
b110 @
b10000000 A
#7900000
0!
0%
0)
0+
b1 e
#7950000
1!
1%
1)
1+
b111 @
b0 A
#8000000
0!
1#
0%
0)
0+
1-
b0 e
#8050000
1!
1%
1)
1+
b0 @
b1 A
0C
b1 D
#8100000
0!
0%
0)
0+
b11111111111111111111111111111111 e
#8150000
1!
z$
1&
1)
1,
0E
#8200000
0!
0)
#8250000
1!
1)
0F
#8300000
0!
0)
#8350000
1!
1)
1.
b1 /
0G
1H
b1 I
b1100 f
b11001100 h
#8400000
0!
0$
0&
0)
0,
b11001100 c
b111 e
#8450000
1!
1%
1)
1+
0.
b1 @
b11 A
0H
#8500000
0!
0%
0)
0+
b110 e
#8550000
1!
1%
1)
1+
b10 @
b111 A
#8600000
0!
0#
0%
0)
0+
0-
b101 e
#8650000
1!
1%
1)
1+
b11 @
b1110 A
#8700000
0!
0%
0)
0+
b100 e
#8750000
1!
1%
1)
1+
b100 @
b11100 A
#8800000
0!
1#
0%
0)
0+
1-
b11 e
#8850000
1!
1%
1)
1+
b101 @
b111001 A
#8900000
0!
0%
0)
0+
b10 e
#8950000
1!
1%
1)
1+
b110 @
b1110011 A
#9000000
0!
0#
0%
0)
0+
0-
b1 e
#9050000
1!
1%
1)
1+
b111 @
b11100110 A
#9100000
0!
0%
0)
0+
b0 e
#9150000
1!
1%
1)
1+
b0 @
b11001100 A
1C
b11001100 D
#9200000
0!
0%
0)
0+
b1 c
b111 e
#9250000
1!
1%
1)
1+
b1 @
b10011000 A
1E
#9300000
0!
0%
0)
0+
b110 e
#9350000
1!
1%
1)
1+
b10 @
b110000 A
1F
#9400000
0!
0%
0)
0+
b101 e
#9450000
1!
1%
1)
1+
1.
b11001100 /
b11 @
b1100000 A
1G
1H
b11001100 I
#9500000
0!
0%
0)
0+
b100 e
#9550000
1!
1%
1)
1+
0.
b100 @
b11000000 A
0H
#9600000
0!
0%
0)
0+
b11 e
#9650000
1!
1%
1)
1+
b101 @
b10000000 A
#9700000
0!
0%
0)
0+
b10 e
#9750000
1!
1%
1)
1+
b110 @
b0 A
#9800000
0!
0%
0)
0+
b1 e
#9850000
1!
1%
1)
1+
b111 @
#9900000
0!
1#
0%
0)
0+
1-
b0 e
#9950000
1!
1%
1)
1+
b0 @
b1 A
0C
b1 D
#10000000
0!
0%
0)
0+
b11111111111111111111111111111111 e
#10050000
1!
z$
1&
1)
1,
0E
#10100000
0!
0)
#10150000
1!
1)
0F
#10200000
0!
0)
#10250000
1!
1)
1.
b1 /
0G
1H
b1 I
b1101 f
b0 g
b11001101 h
#10300000
0!
0$
0&
0)
0,
b11001101 c
b111 e
#10350000
1!
1%
1)
1+
0.
b1 @
b11 A
0H
#10400000
0!
0%
0)
0+
b110 e
#10450000
1!
1%
1)
1+
b10 @
b111 A
#10500000
0!
0#
0%
0)
0+
0-
b101 e
#10550000
1!
1%
1)
1+
b11 @
b1110 A
#10600000
0!
0%
0)
0+
b100 e
#10650000
1!
1%
1)
1+
b100 @
b11100 A
#10700000
0!
1#
0%
0)
0+
1-
b11 e
#10750000
1!
1%
1)
1+
b101 @
b111001 A
#10800000
0!
0%
0)
0+
b10 e
#10850000
1!
1%
1)
1+
b110 @
b1110011 A
#10900000
0!
0#
0%
0)
0+
0-
b1 e
#10950000
1!
1%
1)
1+
b111 @
b11100110 A
#11000000
0!
1#
0%
0)
0+
1-
b0 e
#11050000
1!
1%
1)
1+
b0 @
b11001101 A
1C
b11001101 D
#11100000
0!
0#
0%
0)
0+
0-
b0 c
b111 e
#11150000
1!
1%
1)
1+
b1 @
b10011010 A
1E
#11200000
0!
0%
0)
0+
b110 e
#11250000
1!
1%
1)
1+
b10 @
b110100 A
1F
#11300000
0!
0%
0)
0+
b101 e
#11350000
1!
1%
1)
1+
1.
b11001101 /
b11 @
b1101000 A
1G
1H
b11001101 I
#11400000
0!
0%
0)
0+
b100 e
#11450000
1!
1%
1)
1+
0.
b100 @
b11010000 A
0H
#11500000
0!
0%
0)
0+
b11 e
#11550000
1!
1%
1)
1+
b101 @
b10100000 A
#11600000
0!
0%
0)
0+
b10 e
#11650000
1!
1%
1)
1+
b110 @
b1000000 A
#11700000
0!
0%
0)
0+
b1 e
#11750000
1!
1%
1)
1+
b111 @
b10000000 A
#11800000
0!
0%
0)
0+
b0 e
#11850000
1!
1%
1)
1+
b0 @
b0 A
0C
b0 D
#11900000
0!
0%
0)
0+
b11111111111111111111111111111111 e
#11950000
1!
z$
1&
1)
1,
0E
#12000000
0!
0)
#12050000
1!
1)
0F
#12100000
0!
0)
#12150000
1!
1)
1.
b0 /
0G
1H
b0 I
b111 f
b1 g
b11000111 h
#12200000
0!
1#
0$
0&
0)
0,
1-
b11000111 c
b111 e
#12250000
1!
1%
1)
1+
0.
b1 @
b1 A
0H
#12300000
0!
0%
0)
0+
b110 e
#12350000
1!
1%
1)
1+
b10 @
b11 A
#12400000
0!
0#
0%
0)
0+
0-
b101 e
#12450000
1!
1%
1)
1+
b11 @
b110 A
#12500000
0!
0%
0)
0+
b100 e
#12550000
1!
1%
1)
1+
b100 @
b1100 A
#12600000
0!
0%
0)
0+
b11 e
#12650000
1!
1%
1)
1+
b101 @
b11000 A
#12700000
0!
1#
0%
0)
0+
1-
b10 e
#12750000
1!
1%
1)
1+
b110 @
b110001 A
#12800000
0!
0%
0)
0+
b1 e
#12850000
1!
1%
1)
1+
b111 @
b1100011 A
#12900000
0!
0%
0)
0+
b0 e
#12950000
1!
1%
1)
1+
b0 @
b11000111 A
1C
b11000111 D
#13000000
0!
0#
0%
0)
0+
0-
b1 c
b111 e
#13050000
1!
1%
1)
1+
b1 @
b10001110 A
1E
#13100000
0!
0%
0)
0+
b110 e
#13150000
1!
1%
1)
1+
b10 @
b11100 A
1F
#13200000
0!
0%
0)
0+
b101 e
#13250000
1!
1%
1)
1+
1.
b11000111 /
b11 @
b111000 A
1G
1H
b11000111 I
#13300000
0!
0%
0)
0+
b100 e
#13350000
1!
1%
1)
1+
0.
b100 @
b1110000 A
0H
#13400000
0!
0%
0)
0+
b11 e
#13450000
1!
1%
1)
1+
b101 @
b11100000 A
#13500000
0!
0%
0)
0+
b10 e
#13550000
1!
1%
1)
1+
b110 @
b11000000 A
#13600000
0!
0%
0)
0+
b1 e
#13650000
1!
1%
1)
1+
b111 @
b10000000 A
#13700000
0!
1#
0%
0)
0+
1-
b0 e
#13750000
1!
1%
1)
1+
b0 @
b1 A
0C
b1 D
#13800000
0!
0%
0)
0+
b11111111111111111111111111111111 e
#13850000
1!
z$
1&
1)
1,
0E
#13900000
0!
0)
#13950000
1!
1)
0F
#14000000
0!
0)
#14050000
1!
1)
1.
b1 /
0G
1H
b1 I
b0 g
#14100000
0!
0$
0&
0)
0,
b11000111 c
b111 e
#14150000
1!
1%
1)
1+
0.
b1 @
b11 A
0H
#14200000
0!
0%
0)
0+
b110 e
#14250000
1!
1%
1)
1+
b10 @
b111 A
#14300000
0!
0#
0%
0)
0+
0-
b101 e
#14350000
1!
1%
1)
1+
b11 @
b1110 A
#14400000
0!
0%
0)
0+
b100 e
#14450000
1!
1%
1)
1+
b100 @
b11100 A
#14500000
0!
0%
0)
0+
b11 e
#14550000
1!
1%
1)
1+
b101 @
b111000 A
#14600000
0!
1#
0%
0)
0+
1-
b10 e
#14650000
1!
1%
1)
1+
b110 @
b1110001 A
#14700000
0!
0%
0)
0+
b1 e
#14750000
1!
1%
1)
1+
b111 @
b11100011 A
#14800000
0!
0%
0)
0+
b0 e
#14850000
1!
1%
1)
1+
b0 @
b11000111 A
1C
b11000111 D
#14900000
0!
0#
0%
0)
0+
0-
b0 c
b111 e
#14950000
1!
1%
1)
1+
b1 @
b10001110 A
1E
#15000000
0!
0%
0)
0+
b110 e
#15050000
1!
1%
1)
1+
b10 @
b11100 A
1F
#15100000
0!
0%
0)
0+
b101 e
#15150000
1!
1%
1)
1+
1.
b11000111 /
b11 @
b111000 A
1G
1H
b11000111 I
#15200000
0!
0%
0)
0+
b100 e
#15250000
1!
1%
1)
1+
0.
b100 @
b1110000 A
0H
#15300000
0!
0%
0)
0+
b11 e
#15350000
1!
1%
1)
1+
b101 @
b11100000 A
#15400000
0!
0%
0)
0+
b10 e
#15450000
1!
1%
1)
1+
b110 @
b11000000 A
#15500000
0!
0%
0)
0+
b1 e
#15550000
1!
1%
1)
1+
b111 @
b10000000 A
#15600000
0!
0%
0)
0+
b0 e
#15650000
1!
1%
1)
1+
b0 @
b0 A
0C
b0 D
#15700000
0!
0%
0)
0+
b11111111111111111111111111111111 e
#15750000
1!
z$
1&
1)
1,
0E
#15800000
0!
0)
#15850000
1!
1)
0F
#15900000
0!
0)
#15950000
1!
1)
1.
b0 /
0G
1H
b0 I
b111 n
b100 o
b101 p
b101000 q
b0 r
b10100 t
#16000000
0!
0)
#16050000
1!
1)
0.
0H
#16100000
0!
0)
#16150000
1!
1)
#16200000
0!
0)
b0 s
#16250000
1!
1)
b1 s
#16300000
0!
0)
#16350000
1!
1)
b10 s
#16400000
0!
0)
#16450000
1!
1)
b11 s
#16500000
0!
0)
#16550000
1!
1)
b100 s
#16600000
0!
0)
#16650000
1!
1)
b101 s
#16700000
0!
0)
#16750000
1!
1)
b110 s
#16800000
0!
0)
#16850000
1!
1)
b111 s
#16900000
0!
0)
#16950000
1!
1)
b1000 s
#17000000
0!
0)
#17050000
1!
1)
b1001 s
#17100000
0!
0)
#17150000
1!
1)
b1010 s
#17200000
0!
0)
#17250000
1!
1)
b1011 s
#17300000
0!
0)
#17350000
1!
1)
b1100 s
#17400000
0!
0)
#17450000
1!
1)
b1101 s
#17500000
0!
0)
#17550000
1!
1)
b1110 s
#17600000
0!
0)
#17650000
1!
1)
b1111 s
#17700000
0!
0)
#17750000
1!
1)
b10000 s
#17800000
0!
0)
#17850000
1!
1)
b10001 s
#17900000
0!
0)
#17950000
1!
1)
b10010 s
#18000000
0!
0)
#18050000
1!
1)
b10011 s
#18100000
0!
0)
#18150000
1!
1)
b10100 s
#18200000
0!
0)
#18250000
1!
1)
b10101 s
#18300000
0!
0)
#18350000
1!
1)
b10110 s
#18400000
0!
0)
#18450000
1!
1)
b10111 s
#18500000
0!
0)
#18550000
1!
1)
b11000 s
#18600000
0!
0)
#18650000
1!
1)
b11001 s
#18700000
0!
0)
#18750000
1!
1)
b11010 s
#18800000
0!
0)
#18850000
1!
1)
b11011 s
#18900000
0!
0)
#18950000
1!
1)
b11100 s
#19000000
0!
0)
#19050000
1!
1)
b11101 s
#19100000
0!
0)
#19150000
1!
1)
b11110 s
#19200000
0!
0)
#19250000
1!
1)
b11111 s
#19300000
0!
0)
#19350000
1!
1)
b100000 s
#19400000
0!
0)
#19450000
1!
1)
b100001 s
#19500000
0!
0)
#19550000
1!
1)
b100010 s
#19600000
0!
0)
#19650000
1!
1)
b100011 s
#19700000
0!
0)
#19750000
1!
1)
b100100 s
#19800000
0!
0)
#19850000
1!
1)
b100101 s
#19900000
0!
0)
#19950000
1!
1)
b100110 s
#20000000
0!
0)
#20050000
1!
1)
b100111 s
#20100000
0!
0)
#20150000
1!
1)
b1000 j
b1001000 l
b101000 s
#20200000
0!
0$
0&
0)
0,
b1001000 c
b111 e
#20250000
1!
1%
1)
1+
b1 @
#20300000
0!
1#
0%
0)
0+
1-
b110 e
#20350000
1!
1%
1)
1+
b10 @
b1 A
#20400000
0!
0#
0%
0)
0+
0-
b101 e
#20450000
1!
1%
1)
1+
b11 @
b10 A
#20500000
0!
0%
0)
0+
b100 e
#20550000
1!
1%
1)
1+
b100 @
b100 A
#20600000
0!
1#
0%
0)
0+
1-
b11 e
#20650000
1!
1%
1)
1+
b101 @
b1001 A
#20700000
0!
0#
0%
0)
0+
0-
b10 e
#20750000
1!
1%
1)
1+
b110 @
b10010 A
#20800000
0!
0%
0)
0+
b1 e
#20850000
1!
1%
1)
1+
b111 @
b100100 A
#20900000
0!
0%
0)
0+
b0 e
#20950000
1!
1%
1)
1+
b0 @
b1001000 A
1C
b1001000 D
#21000000
0!
0%
0)
0+
b0 c
b111 e
b0 m
#21050000
1!
1%
1)
1+
b1 @
b10010000 A
1E
#21100000
0!
0%
0)
0+
b110 e
#21150000
1!
1%
1)
1+
b10 @
b100000 A
1F
#21200000
0!
0%
0)
0+
b101 e
#21250000
1!
1%
1)
1+
1.
b1001000 /
b11 @
b1000000 A
1G
1H
b1001000 I
#21300000
0!
0%
0)
0+
b100 e
#21350000
1!
1%
1)
1+
0.
b100 @
b10000000 A
0H
#21400000
0!
0%
0)
0+
b11 e
#21450000
1!
1%
1)
1+
b101 @
b0 A
#21500000
0!
0%
0)
0+
b10 e
#21550000
1!
1%
1)
1+
b110 @
#21600000
0!
0%
0)
0+
b1 e
#21650000
1!
1%
1)
1+
b111 @
#21700000
0!
0%
0)
0+
b0 e
#21750000
1!
1%
1)
1+
b0 @
0C
b0 D
#21800000
0!
0%
0)
0+
b11111111111111111111111111111111 e
b0 k
#21850000
1!
z$
1&
1)
1,
0E
#21900000
0!
0)
#21950000
1!
1)
0F
#22000000
0!
0)
#22050000
1!
b0 (
1)
1.
b0 /
0G
1H
b0 I
b11 f
b10 g
b11000011 h
#22100000
0!
1#
0$
0&
0)
0,
1-
b11000011 c
b111 e
#22150000
1!
1%
1)
1+
0.
b1 @
b1 A
0H
#22200000
0!
0%
0)
0+
b110 e
#22250000
1!
1%
1)
1+
b10 @
b11 A
#22300000
0!
0#
0%
0)
0+
0-
b101 e
#22350000
1!
1%
1)
1+
b11 @
b110 A
#22400000
0!
0%
0)
0+
b100 e
#22450000
1!
1%
1)
1+
b100 @
b1100 A
#22500000
0!
0%
0)
0+
b11 e
#22550000
1!
1%
1)
1+
b101 @
b11000 A
#22600000
0!
0%
0)
0+
b10 e
#22650000
1!
1%
1)
1+
b110 @
b110000 A
#22700000
0!
1#
0%
0)
0+
1-
b1 e
#22750000
1!
1%
1)
1+
b111 @
b1100001 A
#22800000
0!
0%
0)
0+
b0 e
#22850000
1!
1%
1)
1+
b0 @
b11000011 A
1C
b11000011 D
#22900000
0!
0#
0%
0)
0+
0-
b10 c
b111 e
#22950000
1!
1%
1)
1+
b1 @
b10000110 A
1E
#23000000
0!
0%
0)
0+
b110 e
#23050000
1!
1%
1)
1+
b10 @
b1100 A
1F
#23100000
0!
0%
0)
0+
b101 e
#23150000
1!
1%
1)
1+
1.
b11000011 /
b11 @
b11000 A
1G
1H
b11000011 I
#23200000
0!
0%
0)
0+
b100 e
#23250000
1!
1%
1)
1+
0.
b100 @
b110000 A
0H
#23300000
0!
0%
0)
0+
b11 e
#23350000
1!
1%
1)
1+
b101 @
b1100000 A
#23400000
0!
0%
0)
0+
b10 e
#23450000
1!
1%
1)
1+
b110 @
b11000000 A
#23500000
0!
1#
0%
0)
0+
1-
b1 e
#23550000
1!
1%
1)
1+
b111 @
b10000001 A
#23600000
0!
0#
0%
0)
0+
0-
b0 e
#23650000
1!
1%
1)
1+
b0 @
b10 A
0C
b10 D
#23700000
0!
0%
0)
0+
b11111111111111111111111111111111 e
#23750000
1!
z$
1&
1)
1,
0E
#23800000
0!
0)
#23850000
1!
1)
0F
#23900000
0!
0)
#23950000
1!
1)
1.
b10 /
0G
1H
b10 I
b101 f
b110 g
b11000101 h
#24000000
0!
1#
0$
0&
0)
0,
1-
b11000101 c
b111 e
#24050000
1!
1%
1)
1+
0.
b1 @
b101 A
0H
#24100000
0!
0%
0)
0+
b110 e
#24150000
1!
1%
1)
1+
b10 @
b1011 A
#24200000
0!
0#
0%
0)
0+
0-
b101 e
#24250000
1!
1%
1)
1+
b11 @
b10110 A
#24300000
0!
0%
0)
0+
b100 e
#24350000
1!
1%
1)
1+
b100 @
b101100 A
#24400000
0!
0%
0)
0+
b11 e
#24450000
1!
1%
1)
1+
b101 @
b1011000 A
#24500000
0!
1#
0%
0)
0+
1-
b10 e
#24550000
1!
1%
1)
1+
b110 @
b10110001 A
#24600000
0!
0#
0%
0)
0+
0-
b1 e
#24650000
1!
1%
1)
1+
b111 @
b1100010 A
